1;20
2;64
3;64
4;102
5;52
6;55
7;136
8;99
9;93
10;78
11;92
12;57
13;62
14;84
15;54
16;72
17;68
18;68
19;89
20;94
21;61
22;113
23;51
24;91
25;81
26;112
27;78
28;76
29;89
30;98
31;75
32;73
33;77
34;98
35;50
36;45
37;49
38;63
39;48
40;72
41;59
42;62
43;75
44;90
45;220
46;214
47;71
48;81
49;85
50;30
51;46
52;81
53;83
54;121
55;54
56;71
57;99
58;668
59;125
60;98
61;48
62;69
63;123
64;129
65;100
66;36
67;91
68;56
69;77
70;77
71;82
72;43
73;53
74;24
75;22
76;71
77;29
78;45
79;54
80;42
81;37
82;68
83;32
84;41
85;32
86;49
87;33
88;95
89;35
90;23
91;57
92;28
93;24
94;40
95;37
96;33
97;23
98;34
99;26
100;22
101;29
102;23
103;20
104;75
105;51
106;21
107;30
108;57
109;21
110;21
111;38
112;40
113;27
114;34
115;38
116;23
117;23
118;33
119;26
120;22
121;59
122;23
123;52
124;48
125;26
126;33
127;27
128;20
129;50
130;31
131;20
132;27
133;27
134;143
135;31
136;32
137;25
138;57
139;44
140;21
141;27
142;36
143;32
144;37
145;36
146;28
147;48
148;29
149;25
150;28
151;33
152;39
153;21
154;28
155;65
156;31
157;21
158;48
159;36
160;42
161;49
162;50
163;37
164;46
165;40
166;22
167;21
168;387
169;53
170;82
171;61
172;41
173;52
174;33
175;23
176;50
177;37
178;21
179;94
180;25
181;39
182;160
183;45
184;55
185;22
186;20
187;20
188;28
189;20
190;26
191;55
192;21
193;51
194;28
195;20
196;48
197;34
198;33
199;38
200;30
201;20
202;20
203;72
204;21
205;29
206;40
207;41
208;21
209;47
210;33
211;21
212;65
213;42
214;39
215;53
216;48
217;26
218;23
219;37
220;40
221;21
222;62
223;20
224;29
225;42
226;57
227;27
228;29
229;20
230;28
231;33
232;91
233;21
234;29
235;52
236;73
237;64
238;27
239;19
240;35
241;19
242;32
243;34
244;29
245;70
246;23
247;26
248;45
249;21
250;30
251;52
252;37
253;22
254;33
255;38
256;52
257;44
258;29
259;19
260;21
261;25
262;58
263;63
264;21
265;42
266;28
267;47
268;39
269;19
270;26
271;38
272;19
273;26
274;27
275;63
276;20
277;22
278;36
279;20
280;49
281;32
282;35
283;60
284;28
285;24
286;33
287;32
288;20
289;19
290;53
291;29
292;23
293;53
294;19
295;64
296;52
297;20
298;22
299;27
300;19
301;32
302;52
303;20
304;29
305;48
306;20
307;32
308;35
309;19
310;28
311;73
312;35
313;21
314;66
315;52
316;22
317;22
318;20
319;57
320;30
321;45
322;59
323;21
324;69
325;74
326;72
327;43
328;32
329;31
330;19
331;48
332;31
333;20
334;23
335;79
336;29
337;42
338;35
339;26
340;32
341;62
342;43
343;50
344;73
345;30
346;26
347;59
348;29
349;20
350;19
351;56
352;33
353;41
354;30
355;43
356;33
357;51
358;22
359;21
360;62
361;57
362;21
363;30
364;20
365;22
366;53
367;31
368;20
369;24
370;55
371;34
372;20
373;41
374;63
375;41
376;42
377;34
378;41
379;33
380;39
381;20
382;31
383;28
384;36
385;22
386;48
387;85
388;22
389;38
390;112
391;20
392;35
393;40
394;38
395;21
396;21
397;20
398;43
399;42
400;42
401;18
402;49
403;22
404;35
405;63
406;22
407;29
408;19
409;32
410;20
411;44
412;19
413;40
414;72
415;42
416;26
417;34
418;24
419;20
420;25
421;22
422;20
423;60
424;20
425;55
426;273
427;76
428;50
429;72
430;66
431;19
432;39
433;43
434;20
435;29
436;34
437;20
438;32
439;33
440;35
441;19
442;29
443;68
444;54
445;33
446;18
447;46
448;39
449;19
450;61
451;76
452;52
453;35
454;33
455;93
456;132
457;22
458;35
459;26
460;20
461;24
462;66
463;40
464;35
465;42
466;18
467;24
468;43
469;68
470;21
471;62
472;364
473;42
474;21
475;57
476;21
477;35
478;23
479;48
480;44
481;26
482;47
483;55
484;59
485;30
486;28
487;21
488;22
489;37
490;50
491;111
492;39
493;32
494;21
495;40
496;20
497;22
498;24
499;24
500;22
501;161
502;30
503;36
504;48
505;37
506;42
507;64
508;146
509;107
510;355
511;30
512;31
513;21
514;34
515;77
516;21
517;37
518;33
519;50
520;52
521;62
522;35
523;93
524;30
525;32
526;26
527;19
528;43
529;44
530;21
531;36
532;20
533;21
534;20
535;76
536;29
537;20
538;55
539;37
540;36
541;32
542;36
543;36
544;22
545;26
546;20
547;33
548;34
549;57
550;20
551;110
552;26
553;34
554;30
555;25
556;68
557;31
558;80
559;23
560;68
561;130
562;62
563;88
564;103
565;34
566;47
567;55
568;47
569;79
570;168
571;79
572;40
573;22
574;21
575;21
576;20
577;21
578;60
579;21
580;27
581;90
582;32
583;38
584;22
585;29
586;65
587;33
588;49
589;20
590;29
591;42
592;60
593;33
594;33
595;23
596;31
597;40
598;23
599;26
600;48
601;29
602;20
603;41
604;29
605;21
606;66
607;46
608;22
609;33
610;49
611;58
612;111
613;36
614;218
615;106
616;42
617;52
618;47
619;22
620;36
621;33
622;56
623;21
624;31
625;41
626;21
627;23
628;22
629;66
630;67
631;29
632;31
633;20
634;19
635;45
636;54
637;36
638;207
639;66
640;19
641;24
642;23
643;35
644;25
645;37
646;21
647;43
648;32
649;29
650;38
651;36
652;27
653;42
654;35
655;43
656;20
657;28
658;35
659;42
660;41
661;23
662;57
663;28
664;34
665;29
666;23
667;32
668;71
669;48
670;42
671;55
672;40
673;25
674;33
675;29
676;53
677;21
678;66
679;45
680;42
681;65
682;36
683;71
684;24
685;49
686;82
687;63
688;22
689;31
690;26
691;28
692;31
693;62
694;39
695;18
696;43
697;54
698;91
699;30
700;28
701;22
702;44
703;49
704;22
705;30
706;43
707;35
708;43
709;26
710;43
711;29
712;22
713;39
714;30
715;24
716;40
717;26
718;21
719;36
720;46
721;40
722;59
723;24
724;53
725;51
726;28
727;79
728;68
729;38
730;39
731;74
732;30
733;41
734;66
735;23
736;74
737;73
738;60
739;68
740;77
741;156
742;91
743;87
744;57
745;125
746;521
747;65
748;54
749;27
750;48
751;60
752;109
753;65
754;50
755;31
756;56
757;46
758;56
759;82
760;45
761;40
762;42
763;24
764;64
765;36
766;53
767;192
768;48
769;85
770;127
771;86
772;44
773;64
774;38
775;35
776;60
777;50
778;108
779;25
780;46
781;27
782;32
783;53
784;73
785;38
786;76
787;94
788;173
789;76
790;56
791;46
792;56
793;35
794;46
795;68
796;44
797;31
798;78
799;149
800;147
801;58
802;63
803;188
804;78
805;72
806;72
807;131
808;115
809;69
810;61
811;100
812;83
813;126
814;79
815;58
816;95
817;53
818;46
819;38
820;48
821;34
822;57
823;29
824;41
825;961
826;106
827;134
828;210
829;167
830;50
831;60
832;91
833;29
834;21
835;54
836;30
837;21
838;46
839;72
840;35
841;53
842;42
843;42
844;52
845;60
846;52
847;85
848;35
849;54
850;21
851;40
852;40
853;57
854;36
855;20
856;36
857;59
858;21
859;21
860;41
861;32
862;22
863;33
864;48
865;24
866;30
867;45
868;36
869;59
870;33
871;35
872;26
873;55
874;24
875;22
876;40
877;31
878;19
879;54
880;54
881;46
882;21
883;54
884;62
885;23
886;31
887;27
888;45
889;32
890;198
891;57
892;40
893;27
894;21
895;32
896;52
897;30
898;27
899;48
900;50
901;41
902;26
903;21
904;31
905;39
906;26
907;32
908;21
909;49
910;24
911;41
912;52
913;21
914;46
915;33
916;28
917;18
918;69
919;41
920;43
921;40
922;57
923;26
924;47
925;34
926;60
927;38
928;41
929;46
930;73
931;21
932;50
933;22
934;49
935;28
936;22
937;56
938;30
939;40
940;21
941;21
942;21
943;54
944;102
945;34
946;76
947;27
948;52
949;76
950;25
951;23
952;31
953;56
954;68
955;22
956;95
957;160
958;73
959;38
960;23
961;43
962;21
963;29
964;43
965;32
966;101
967;61
968;27
969;71
970;22
971;31
972;37
973;28
974;57
975;43
976;32
977;22
978;65
979;26
980;31
981;21
982;24
983;21
984;64
985;21
986;23
987;41
988;24
989;43
990;42
991;33
992;43
993;31
994;33
995;28
996;22
997;44
998;26
999;35
1000;32
