1;5c596f7194160156b0ac8a2a
2;5c596e3794160156b0941b49
3;5c5983269416013cb7b0db12
4;5c594aae9416016409ddd92b
5;5c597d80941601181da327f9
6;5c596d1094160156b07be072
7;5c597d81941601181da34074
8;5c595bc79416010cf2fd814c
9;5c5986799416013cb71fd630
10;5c597d7f941601181da3189c
11;5c597d5a941601181d9ffb45
12;5c597be4941601181d802344
13;5c596fa594160156b0b0ffeb
14;5c597d82941601181da34f33
15;5c596e4c94160156b0957a72
16;5c594f5a94160164096036ef
17;5c597d58941601181d9fbc8d
18;5c596e3b94160156b094706c
19;5c594fae941601640968fb81
20;5c596e4294160156b094ce9e
21;5c597d77941601181da28532
22;5c596e3794160156b0941c11
23;5c597d85941601181da39f80
24;5c596fb594160156b0b23eee
25;5c596e3b94160156b0947081
26;5c597d65941601181da10b61
27;5c596e4b94160156b0957332
28;5c597d13941601181d98f3e5
29;5c595b589416010cf2f04acb
30;5c596f7d94160156b0ad6d06
31;5c596d1094160156b07be019
32;5c596f7694160156b0acdd5f
33;5c594f25941601640959f0a3
34;5c597d82941601181da3509d
35;5c595a139416010cf2ccd1a6
36;5c597d83941601181da3657c
37;5c595b539416010cf2efc5b8
38;5c594f8994160164096540e9
39;5c596e3b94160156b094707a
40;5c5957a49416010cf28981dd
41;5c596e3994160156b0943e2c
42;5c5957e89416010cf29039b0
43;5c597c9c941601181d90f8e2
44;5c597d5b941601181da00a10
45;5c596e3b94160156b094707e
46;5c595a269416010cf2ceb91f
47;5c5957fa9416010cf2921ae4
48;5c597bbc941601181d7c19f1
49;5c59702494160156b0bb4da2
50;5c597c4b941601181d8a3cd5
51;5c597ec7941601181dcc84b0
52;5c5957d39416010cf28e0bca
53;5c596f7e94160156b0ad8632
54;5c5958949416010cf2a2400c
55;5c597d82941601181da34f33
56;5c5957e89416010cf29032b3
57;5c597cfa941601181d9758df
58;5c597bd8941601181d7ec22f
59;5c597f46941601181ddd60c5
60;5c597d58941601181d9fb0c1
61;5c596e4c94160156b0957a72
62;5c595b539416010cf2efc5c0
63;5c594aae9416016409ddd92b
64;5c597c73941601181d8dda1e
65;5c59501294160164097462b4
66;5c596e8f94160156b09a8f2e
67;5c597caa941601181d920083
68;5c596e5894160156b0968958
69;5c596d4894160156b080abeb
70;5c596e4c94160156b0957ac3
71;5c596e3b94160156b0947070
72;5c596e3794160156b0941be4
73;5c596e3794160156b0941b3d
74;5c597f7f941601181de3f710
75;5c597df0941601181daf2f27
76;5c5958129416010cf2947e94
77;5c595be29416010cf200b9a7
78;5c597d5a941601181d9ffb45
79;5c596b1294160156b036895b
80;5c594f25941601640959f0a3
81;5c596e3694160156b093f040
82;5c5957e89416010cf29039b0
83;5c596e3794160156b0941bf5
84;5c597c35941601181d87d661
85;5c596f8f94160156b0aef91d
86;5c595fd69416013043f42df6
87;5c596ffa94160156b0b791de
88;5c594b329416016409ee2118
89;5c597c18941601181d84ff66
90;5c597d5b941601181da00a10
91;5c59702494160156b0bb445f
92;5c5958269416010cf29687fc
93;5c597d10941601181d98b464
94;5c594aae9416016409dde5bf
95;5c596e3b94160156b094706c
96;5c596e3794160156b0941b48
97;5c595b299416010cf2eb34d9
98;5c597c2b941601181d86fa7e
99;5c597e6d941601181dc11a80
100;5c597cd9941601181d957abe
101;5c597cd9941601181d957d14
102;5c594b3e9416016409ef9612
103;5c597d57941601181d9f9ef1
104;5c597d43941601181d9d8cdc
105;5c5983039416013cb7ab056b
106;5c596fb194160156b0b1db27
107;5c596fe694160156b0b590f7
108;5c598080941601181d093ad3
109;5c597d40941601181d9d2958
110;5c594af39416016409e74911
111;5c595aec9416010cf2e4a084
112;5c59603f9416013043fe92aa
113;5c59572d9416010cf27c1cc9
114;5c597c54941601181d8b54a1
115;5c5959ea9416010cf2c8367c
116;5c594f69941601640961eba8
117;5c595b1a9416010cf2e9b250
118;5c597d40941601181d9d2958
119;5c595a409416010cf2d1554b
120;5c597d41941601181d9d4cd3
121;5c596fad94160156b0b1a3fc
122;5c597d0e941601181d98ab29
123;5c595a7d9416010cf2d78470
124;5c597d10941601181d98b516
125;5c597db0941601181da749cd
126;5c5959579416010cf2b7d552
127;5c594fac941601640968c036
128;5c597d85941601181da39d0d
129;5c597e53941601181dbdca78
130;5c594f7d9416016409640d3e
131;5c597d40941601181d9d2d3f
132;5c59574f9416010cf280367d
133;5c594f7d94160164096416ad
134;5c597f6a941601181de12ded
135;5c5957719416010cf2844c27
136;5c5959c69416010cf2c3ead7
137;5c596e5594160156b0964333
138;5c597bca941601181d7d6be2
139;5c597cf7941601181d9715dd
140;5c594e2694160164093f5dd4
141;5c597d40941601181d9d2d3f
142;5c5959709416010cf2baef33
143;5c595aec9416010cf2e4a084
144;5c59590d9416010cf2b02e50
145;5c596fd894160156b0b4c408
146;5c5983029416013cb7aaf433
147;5c594f969416016409666cf0
148;5c597ce1941601181d95f636
149;5c597d40941601181d9d35d8
150;5c594b669416016409f5c5b4
151;5c597d28941601181d9a9f8e
152;5c595b409416010cf2ed8bfe
153;5c594f959416016409665cf8
154;5c59806c941601181d067b7b
155;5c594f7e94160164096418b7
156;5c597d41941601181d9d5646
157;5c597d5b941601181da0114c
158;5c594f7c941601640963fc67
159;5c5961019416013043160f74
160;5c5959849416010cf2bcda57
161;5c597bbc941601181d7c05ff
162;5c597d5b941601181da00514
163;5c597d44941601181d9d9439
164;5c595a7f9416010cf2d7c8d2
165;5c597cd7941601181d956411
166;5c597db0941601181da749c3
167;5c594b3a9416016409ef3f53
168;5c5983159416013cb7ade6d2
169;5c597d5b941601181da011c7
170;5c598064941601181d04e80e
171;5c595b319416010cf2ebdf63
172;5c597d1d941601181d99bc0e
173;5c597d2c941601181d9aec60
174;5c594b719416016409f731dc
175;5c594f7e9416016409641de3
176;5c595b409416010cf2ed8c25
177;5c596ebc94160156b09eca6e
178;5c595a7f9416010cf2d7caa6
179;5c597d83941601181da36826
180;5c5959eb9416010cf2c846ec
181;5c597d3f941601181d9d1fc8
182;5c597c8a941601181d8f9bbd
183;5c596e5094160156b095ddc7
184;5c595a7c9416010cf2d75c72
185;5c597d3f941601181d9d1cf2
186;5c595a7d9416010cf2d78470
187;5c597d13941601181d98f2b5
188;5c597caa941601181d91fd0a
189;5c594f5d94160164096097a6
190;5c5959ea9416010cf2c832f6
191;5c597d3f941601181d9d1806
192;5c597d40941601181d9d2958
193;5c597ccb941601181d9457d0
194;5c59809b941601181d0cf953
195;5c597c9e941601181d911c4a
196;5c59863e9416013cb717e1a7
197;5c5986669416013cb71d46f2
198;5c596090941601304307017b
199;5c598077941601181d07fdf7
200;5c597d42941601181d9d5b08
201;5c597d3f941601181d9d1571
202;5c597cd5941601181d953047
203;5c5959ea9416010cf2c8344a
204;5c594f7d9416016409640fe5
205;5c597cb3941601181d929b7b
206;5c597ce5941601181d962b1e
207;5c597d42941601181d9d6690
208;5c5959de9416010cf2c70553
209;5c594aae9416016409ddd967
210;5c5958709416010cf29e9272
211;5c59808f941601181d0b19fa
212;5c594f7d9416016409641313
213;5c5983129416013cb7ad771d
214;5c598067941601181d05991c
215;5c595b319416010cf2ebdf63
216;5c595a7c9416010cf2d76e9b
217;5c595b319416010cf2ebdf3d
218;5c5959799416010cf2bbb947
219;5c596d7794160156b084ff12
220;5c5983039416013cb7ab056b
221;5c597cff941601181d979f1f
222;5c59603f9416013043fe92af
223;5c597d40941601181d9d2958
224;5c5956cf9416010cf27501df
225;5c5959ea9416010cf2c834ac
226;5c595aec9416010cf2e4a084
227;5c597bec941601181d80e2c3
228;5c598071941601181d074412
229;5c5959cd9416010cf2c4c82b
230;5c594b549416016409f2e95c
231;5c597cd9941601181d95802d
232;5c597cbd941601181d933b27
233;5c5983049416013cb7ab3334
234;5c595a7d9416010cf2d77d84
235;5c597d40941601181d9d3335
236;5c597d4a941601181d9e52fa
237;5c597e72941601181dc1de5d
238;5c594af59416016409e78be5
239;5c594f6c941601640962416e
240;5c595b319416010cf2ebdf63
241;5c594b269416016409ecd88c
242;5c594f7d94160164096416ad
243;5c59610e94160130431758a2
244;5c594afc9416016409e85c5e
245;5c595b319416010cf2ebdf63
246;5c596e7494160156b09876e8
247;5c596e8394160156b099a7e1
248;5c595a7c9416010cf2d75cb7
249;5c59805e941601181d03c226
250;5c597d40941601181d9d2958
251;5c597cf7941601181d971ff9
252;5c59806d941601181d06a242
253;5c597d5b941601181da00e65
254;5c597d5b941601181da0102d
255;5c5959ea9416010cf2c8349c
256;5c596e5794160156b0966461
257;5c594f7d94160164096402c4
258;5c595b409416010cf2ed8bfe
259;5c594f7d9416016409640b04
260;5c5961149416013043184b9c
261;5c597d56941601181d9f7aa5
262;5c597d06941601181d981e5b
263;5c595b319416010cf2ebdf3f
264;5c597cc0941601181d9366fe
265;5c5986019416013cb70f7e4f
266;5c597d18941601181d995cde
267;5c598074941601181d07a74d
268;5c596e1c94160156b09298ac
269;5c5959779416010cf2bb8c29
270;5c597cf2941601181d96dc3a
271;5c59603e9416013043fe7521
272;5c597d41941601181d9d4d45
273;5c5983049416013cb7ab3bf8
274;5c597d08941601181d983c4e
275;5c597e62941601181dbfb024
276;5c5983049416013cb7ab271a
277;5c594f7d9416016409640d3e
278;5c59808b941601181d0a8a20
279;5c594f7c941601640963fc09
280;5c597b9d941601181d79499f
281;5c597bc4941601181d7cf90c
282;5c5984139416013cb7d1c905
283;5c594ab19416016409de5436
284;5c5957cf9416010cf28daa7f
285;5c5956ae9416010cf2717d68
286;5c596edb94160156b0a126d0
287;5c5958cb9416010cf2a8f1e5
288;5c596ef094160156b0a2ad68
289;5c594b389416016409eeee73
290;5c597c57941601181d8b8831
291;5c597c5e941601181d8c3218
292;5c594b749416016409f79703
293;5c5956c79416010cf2743365
294;5c597f50941601181dde6534
295;5c5985eb9416013cb70cc996
296;5c594b749416016409f79992
297;5c594b6c9416016409f6809e
298;5c597c57941601181d8b871d
299;5c594ff69416016409716260
300;5c597e8f941601181dc5d9b6
301;5c597b76941601181d76a7ac
302;5c594f2794160164095a1809
303;5c597bc7941601181d7d1d73
304;5c5958c29416010cf2a81514
305;5c5957729416010cf28467ad
306;5c596fe994160156b0b5d1ed
307;5c595009941601640973581e
308;5c595c109416010cf205a969
309;5c5958b49416010cf2a632d1
310;5c597c5e941601181d8c2ec0
311;5c59571a9416010cf27a22e0
312;5c594b6c9416016409f66b9c
313;5c59808e941601181d0af2c6
314;5c597c5e941601181d8c2f5a
315;5c596f8f94160156b0aeea2f
316;5c596feb94160156b0b60322
317;5c597c7c941601181d8e8b62
318;5c5958f49416010cf2ad5fb8
319;5c5965529416013043866e7e
320;5c594f5394160164095f8462
321;5c596d9894160156b087ba42
322;5c595b8d9416010cf2f62bb7
323;5c594f4094160164095c9a60
324;5c595a6c9416010cf2d5d6a5
325;5c5965529416013043866e5d
326;5c594f5494160164095fa337
327;5c594f3c94160164095c3760
328;5c59582c9416010cf2971f7c
329;5c597d62941601181da0b1f3
330;5c595b8d9416010cf2f62bb7
331;5c594f3a94160164095bfb26
332;5c594f5394160164095f8f47
333;5c5985219416013cb7f176bd
334;5c59592d9416010cf2b3a799
335;5c594f3f94160164095c8589
336;5c594f4d94160164095e7f1d
337;5c594f4894160164095dc2e6
338;5c594b729416016409f74e4c
339;5c595aa99416010cf2dca100
340;5c594f4194160164095cc397
341;5c594aad9416016409ddb8ae
342;5c597ca0941601181d914ce3
343;5c594b169416016409eb4e52
344;5c597d4e941601181d9ea802
345;5c5986989416013cb724a36e
346;5c597f1b941601181dd80643
347;5c5984169416013cb7d25ac9
348;5c5960069416013043f864ae
349;5c59808f941601181d0b20c1
350;5c595b559416010cf2efff40
351;5c5958389416010cf2984537
352;5c5984529416013cb7d945af
353;5c594fa79416016409683ab8
354;5c598000941601181df67d1e
355;5c5986179416013cb71343dc
356;5c597bdb941601181d7f26fa
357;5c597c55941601181d8b690e
358;5c597b7f941601181d777fe2
359;5c597d69941601181da159dd
360;5c596f9894160156b0afce63
361;5c596f8c94160156b0ae96ef
362;5c597b7c941601181d77141d
363;5c595a489416010cf2d21966
364;5c597f43941601181ddcff76
365;5c596fb894160156b0b287ed
366;5c596f6994160156b0ac052d
367;5c596fbf94160156b0b30891
368;5c597d6b941601181da179e0
369;5c597c16941601181d84cad5
370;5c594fa79416016409682ec1
371;5c59809c941601181d0d1598
372;5c597c53941601181d8b33b3
373;5c594fcd94160164096cc3bd
374;5c59601f9416013043fb14b5
375;5c59595f9416010cf2b8ad79
376;5c5957e89416010cf2902ce3
377;5c597ffd941601181df63ec6
378;5c597ebd941601181dcb6f63
379;5c597cfc941601181d976af4
380;5c59701394160156b0b9cd8e
381;5c5964c79416013043776d33
382;5c5964c89416013043777c9c
383;5c596215941601304332fdef
384;5c595fd79416013043f44414
385;5c5962189416013043334e4f
386;5c5964d494160130437861f1
387;5c59835c9416013cb7b8e525
388;5c5964d49416013043786dde
389;5c5964be941601304376c3e3
390;5c5964bf941601304376ce8f
391;5c5965619416013043884bef
392;5c5964d094160130437815ab
393;5c597d80941601181da32bdb
394;5c5964ca9416013043779d0e
395;5c597dce941601181dab0ced
396;5c5961e994160130432eb2b9
397;5c5961fb9416013043306e9a
398;5c5961d694160130432c6585
399;5c5961b9941601304329a9be
400;5c5961b5941601304329494d
401;5c5961b694160130432962c7
402;5c5984689416013cb7dbb9dd
403;5c5985f09416013cb70d5901
404;5c59613c94160130431c9fa9
405;5c597d84941601181da37cc5
406;5c596205941601304331703a
407;5c59833f9416013cb7b4f6a7
408;5c597e40941601181dbb51f3
409;5c594cc794160164091ae1c5
410;5c5961f094160130432f6517
411;5c595a3c9416010cf2d0e32e
412;5c5961f194160130432f7efd
413;5c5962fb94160130434a59ef
414;5c59615a94160130431fd68e
415;5c596f8794160156b0ae36da
416;5c596d6394160156b0832ddd
417;5c594c3794160164090ae513
418;5c59632994160130434f38dc
419;5c5961ee94160130432f23c3
420;5c5962eb941601304348f31d
421;5c5956e19416010cf276c9ae
422;5c59587b9416010cf29fa40f
423;5c5961ec94160130432f0a85
424;5c5961149416013043182cc1
425;5c5961f694160130433006c5
426;5c594c2e94160164090a4101
427;5c594c3994160164090b15e9
428;5c596f2e94160156b0a874a6
429;5c594c6c9416016409108e4d
430;5c5960159416013043fa13be
431;5c594b959416016409fb35fc
432;5c5962369416013043371d63
433;5c596abd94160156b029c907
434;5c597ce8941601181d9654ce
435;5c596237941601304337259f
436;5c5958729416010cf29ebc27
437;5c594cb294160164091818a5
438;5c596eef94160156b0a2843a
439;5c5961df94160130432d569f
440;5c596e9094160156b09aa0e6
441;5c5959419416010cf2b5a7ad
442;5c594f4894160164095db011
443;5c595ac69416010cf2e01769
444;5c5959c79416010cf2c424b3
445;5c597db1941601181da75232
446;5c594cb7941601640918c53a
447;5c5984789416013cb7dd956a
448;5c5956e19416010cf276d56f
449;5c5960779416013043042053
450;5c594b929416016409fb02ef
451;5c5961a59416013043278c51
452;5c594b939416016409fb0d22
453;5c5959df9416010cf2c70d3b
454;5c59587c9416010cf29fc4cd
455;5c594b969416016409fb5bee
456;5c5957639416010cf2828e86
457;5c59623894160130433748d2
458;5c594cb394160164091846e4
459;5c5958589416010cf29ba5dc
460;5c594b959416016409fb37d6
461;5c596f3294160156b0a8d957
462;5c597edb941601181dcf189a
463;5c594b8e9416016409fa90f3
464;5c5963329416013043500450
465;5c594b929416016409fb03f9
466;5c594f72941601640962e451
467;5c597ed8941601181dceb3ec
468;5c594caf941601640917c9dc
469;5c597ef8941601181dd2a8bb
470;5c594f3494160164095b3e12
471;5c594cb49416016409185019
472;5c594b8f9416016409faa14a
473;5c5984189416013cb7d28f13
474;5c59601a9416013043fa8dcc
475;5c596c9d94160156b06bab40
476;5c594cb5941601640918833a
477;5c5959b89416010cf2c269f6
478;5c596b2594160156b038ea23
479;5c594f3594160164095b522f
480;5c5959c29416010cf2c37f5b
481;5c595bf49416010cf20281ef
482;5c594cb19416016409180599
483;5c595a789416010cf2d6f4f7
484;5c594cb494160164091855b4
485;5c594cb9941601640919232d
486;5c597d1d941601181d99c473
487;5c596b1b94160156b0379e95
488;5c594c6d941601640910ab53
489;5c594b939416016409fb0c05
490;5c594b939416016409fb0e74
491;5c59500b9416016409738bc5
492;5c594b959416016409fb3ef9
493;5c59595a9416010cf2b81c4e
494;5c5962119416013043329ffc
495;5c596ea294160156b09c21b9
496;5c59831c9416013cb7aef236
497;5c598080941601181d0922c3
498;5c5962379416013043372212
499;5c594cb594160164091887ec
500;5c595fd49416013043f3f94d
501;5c597eb7941601181dcaba37
502;5c596dba94160156b08a6a93
503;5c597ef8941601181dd2cdb0
504;5c59633b941601304350e41f
505;5c597f3e941601181ddc309b
506;5c597ce1941601181d95f319
507;5c594cac9416016409178bb1
508;5c59863c9416013cb717b03d
509;5c596f0f94160156b0a5e6b9
510;5c594acb9416016409e1b0ba
511;5c597c27941601181d86816d
512;5c594b959416016409fb37fa
513;5c595af29416010cf2e54d92
514;5c59635494160130435349da
515;5c59864c9416013cb719fa95
516;5c596f1294160156b0a62bff
517;5c5957d89416010cf28e9c63
518;5c596ea694160156b09c8f9b
519;5c597ef5941601181dd269c5
520;5c594b939416016409fb0a80
521;5c597ecc941601181dcd3679
522;5c59809f941601181d0d82e2
523;5c5958329416010cf297b19c
524;5c594b9a9416016409fbadea
525;5c595b919416010cf2f6b41e
526;5c59635f9416013043540b4d
527;5c596349941601304352412d
528;5c59651d94160130437f68d1
529;5c597ee8941601181dd0ba27
530;5c596af294160156b032a9ca
531;5c59500e941601640973dd29
532;5c5957b79416010cf28b6923
533;5c59623e941601304337d8e3
534;5c59653094160130438228f5
535;5c597cf0941601181d96c30d
536;5c595bff9416010cf203b198
537;5c596ec594160156b09f8d2e
538;5c594cb99416016409192140
539;5c59579b9416010cf288b363
540;5c594b8e9416016409fa9c7b
541;5c594cb99416016409191461
542;5c594b939416016409fb0dde
543;5c595b749416010cf2f37563
544;5c5960d39416013043107a88
545;5c597d03941601181d97e101
546;5c5958b29416010cf2a5eff3
547;5c594f3394160164095b1af0
548;5c59595b9416010cf2b8412d
549;5c594cb1941601640917f889
550;5c5962069416013043318780
551;5c594ab29416016409de85b5
552;5c594b929416016409fb065a
553;5c5983209416013cb7afa343
554;5c594b939416016409fb07bd
555;5c595b039416010cf2e7027e
556;5c594cb59416016409187db9
557;5c596e8a94160156b09a4110
558;5c594b939416016409fb07a0
559;5c594b9a9416016409fbb522
560;5c59626394160130433ba2ac
561;5c594cb19416016409180a00
562;5c594f2a94160164095a5c7c
563;5c59633b941601304350eb04
564;5c59577e9416010cf2859f3b
565;5c594cb99416016409191ba9
566;5c594cb89416016409190bee
567;5c597ee0941601181dcfa941
568;5c594ad19416016409e2ce86
569;5c594cb494160164091862cd
570;5c594b919416016409faee45
571;5c598094941601181d0bc2c3
572;5c594b949416016409fb238f
573;5c59613e94160130431cccc9
574;5c595b289416010cf2eb18c0
575;5c59634f941601304352dcf3
576;5c594cb39416016409183a9a
577;5c596e9194160156b09aa22b
578;5c594b9e9416016409fc0d09
579;5c596482941601304370f0d2
580;5c594e8b941601640949a37c
581;5c59652894160130438103bb
582;5c594e7a941601640947edf6
583;5c594bc49416016409ffb744
584;5c594be4941601640902f2e8
585;5c594ea094160164094c0fd0
586;5c594e8c941601640949c9a4
587;5c594eaa94160164094d4846
588;5c594bf8941601640904f89e
589;5c594bc29416016409ff89c8
590;5c594ea994160164094d19c9
591;5c596dc294160156b08b02a7
592;5c594ef19416016409542ebf
593;5c594ba79416016409fceaab
594;5c594e9b94160164094b8394
595;5c594bb99416016409fea021
596;5c59645b94160130436cc18d
597;5c596dd694160156b08cac78
598;5c59649894160130437324cf
599;5c59642d941601304368745d
600;5c594bab9416016409fd6312
601;5c594bc59416016409ffd75b
602;5c597d82941601181da3511f
603;5c594ea494160164094ca59d
604;5c594bdf9416016409027ef5
605;5c594eaa94160164094d480b
606;5c594ea094160164094c205a
607;5c594bdb9416016409020a46
608;5c59645c94160130436cea1a
609;5c597cf8941601181d972821
610;5c594be99416016409038b28
611;5c594eab94160164094d64a6
612;5c594e9594160164094ad721
613;5c59644694160130436aa2c2
614;5c596adc94160156b02eef08
615;5c5956e79416010cf27769d7
616;5c594bc89416016409001ae1
617;5c594b9b9416016409fbcc94
618;5c594e7e94160164094855d9
619;5c594e6e941601640946c5fc
620;5c59645194160130436bbdad
621;5c597eea941601181dd0f325
622;5c594b9f9416016409fc200b
623;5c59643994160130436957ee
624;5c594e8d941601640949dbec
625;5c594bb59416016409fe3941
626;5c5957719416010cf28448c1
627;5c594bad9416016409fd81ab
628;5c594e8b9416016409499cd9
629;5c594ea294160164094c5c21
630;5c594e8094160164094891f3
631;5c59643d941601304369b5d4
632;5c594bad9416016409fd87a5
633;5c596bb194160156b04c8f84
634;5c594ba29416016409fc5b8c
635;5c59645d94160130436cf061
636;5c594e9794160164094b0c1d
637;5c594e78941601640947ca11
638;5c594c0e9416016409070d6c
639;5c594edb941601640951f9f2
640;5c594bdb94160164090214ac
641;5c594c119416016409075ef2
642;5c59645a94160130436ca6fe
643;5c59644f94160130436b8d4a
644;5c594bf094160164090436e4
645;5c5958d19416010cf2a99cde
646;5c594e6e941601640946cdcd
647;5c5986909416013cb723386c
648;5c594baf9416016409fdb7e1
649;5c596ae194160156b02fe047
650;5c597eec941601181dd136a8
651;5c594bf09416016409042c80
652;5c594bdc9416016409022aa1
653;5c5958d19416010cf2a99fe3
654;5c597d9d941601181da5ac34
655;5c597dbf941601181da925fc
656;5c594c85941601640912a692
657;5c597bca941601181d7d6a8b
658;5c5962ab941601304342a0d8
659;5c5958109416010cf2945399
660;5c597c5b941601181d8bf724
661;5c59640f94160130436664cc
662;5c598074941601181d07b1e6
663;5c594de49416016409395880
664;5c596377941601304356eb96
665;5c5963799416013043572b84
666;5c596d3794160156b07ec1e7
667;5c594c6f941601640910d30f
668;5c59639f94160130435b4ccf
669;5c5964e3941601304379af91
670;5c594c6294160164090fa636
671;5c59601f9416013043fb0e35
672;5c5959479416010cf2b64355
673;5c596ddf94160156b08d87aa
674;5c5957479416010cf27f599e
675;5c596d2294160156b07d1cb0
676;5c59650f94160130437dc363
677;5c5962b39416013043437e0b
678;5c5964aa9416013043750ad5
679;5c597fc5941601181def7b45
680;5c59582c9416010cf297244f
681;5c5964e6941601304379e2ff
682;5c594c7494160164091136fd
683;5c596223941601304334b54e
684;5c5964a3941601304374614d
685;5c596c9a94160156b06b733d
686;5c594c6594160164090ff056
687;5c59624b9416013043392fc4
688;5c5964ae9416013043756720
689;5c597ddd941601181dace4ce
690;5c594c5e94160164090f41b9
691;5c5959f29416010cf2c90ca2
692;5c59637b9416013043578113
693;5c5963a094160130435b6000
694;5c595ad39416010cf2e1a54f
695;5c597d5c941601181da020ce
696;5c594de694160164093983e8
697;5c596527941601304380a960
698;5c59651b94160130437f2fb5
699;5c596234941601304336c431
700;5c594c7c941601640911c102
701;5c594c6294160164090fa342
702;5c59860d9416013cb7119fe7
703;5c595aa79416010cf2dc5398
704;5c595bdb9416010cf2fffba3
705;5c595b979416010cf2f77e77
706;5c594ca4941601640916a45f
707;5c597ddb941601181dacb328
708;5c597d64941601181da0e282
709;5c5962be9416013043449bb7
710;5c594c5e94160164090f3871
711;5c5962a6941601304342083b
712;5c596dd294160156b08c5d9c
713;5c597db4941601181da7b5a1
714;5c5962ca941601304345b5e3
715;5c596abe94160156b02a0471
716;5c596ae294160156b0300f06
717;5c59626e94160130433c92cb
718;5c5960059416013043f83a68
719;5c59636b94160130435596ec
720;5c596b1b94160156b0379c45
721;5c5957c49416010cf28cc430
722;5c596527941601304380cce5
723;5c597dea941601181dae7238
724;5c597de7941601181dae2104
725;5c5963f09416013043635a3c
726;5c5964b2941601304375d117
727;5c594c6b9416016409106bab
728;5c594c6c9416016409108a2f
729;5c594c799416016409119450
730;5c59636c9416013043559c6f
731;5c597dbb941601181da8b5a0
732;5c5962ae94160130434303c4
733;5c594c75941601640911397f
734;5c59625694160130433a3e35
735;5c5964ac9416013043753e12
736;5c59626a94160130433c2a9f
737;5c5964a69416013043749cea
738;5c5963739416013043567485
739;5c5983c29416013cb7c671f2
740;5c5964b69416013043762dad
741;5c59628b94160130433f8e13
742;5c59834b9416013cb7b68b87
743;5c5964ac9416013043753feb
744;5c5956a79416010cf270c9a5
745;5c59640b941601304366178c
746;5c594c7d941601640911e7d3
747;5c59570e9416010cf2797868
748;5c594c6294160164090f911e
749;5c5959719416010cf2baf67b
750;5c5962419416013043383653
751;5c597e2d941601181db87d97
752;5c5962c69416013043454eba
753;5c596dd394160156b08c71e8
754;5c5964e19416013043798040
755;5c596379941601304357349e
756;5c596389941601304359028e
757;5c596250941601304339b995
758;5c596b5b94160156b0406d42
759;5c594c6094160164090f651f
760;5c596245941601304338a4fb
761;5c596234941601304336e0ec
762;5c597d0a941601181d985340
763;5c594de794160164093997f5
764;5c5958f99416010cf2adfdfe
765;5c59625b94160130433ac9d9
766;5c5962d194160130434653bc
767;5c594c5c94160164090f1575
768;5c596abc94160156b029a320
769;5c5962a3941601304341d23a
770;5c596bbf94160156b04e525b
771;5c5963799416013043573d46
772;5c596dc594160156b08b3455
773;5c594ca4941601640916bf1c
774;5c59624e941601304339907a
775;5c5962309416013043365f37
776;5c596af094160156b0325f12
777;5c59625694160130433a43e8
778;5c5959d79416010cf2c61043
779;5c594dee94160164093a711e
780;5c5983409416013cb7b53008
781;5c596224941601304334d67b
782;5c596227941601304335377d
783;5c594c8194160164091224d0
784;5c595aaf9416010cf2dd67c4
785;5c5983aa9416013cb7c3abfd
786;5c594b8b9416016409fa525b
787;5c594d7794160164092ea907
788;5c59647a94160130436ff6ff
789;5c59650594160130437c8e79
790;5c59647c9416013043702080
791;5c59648494160130437122c8
792;5c5964ed94160130437a9c27
793;5c59647694160130436fa541
794;5c594d6494160164092cad63
795;5c5964f594160130437b44bc
796;5c594d6494160164092cb173
797;5c595b2a9416010cf2eb3e81
798;5c597e5e941601181dbf31e3
799;5c59646094160130436d5639
800;5c59647994160130436fe1ed
801;5c5964fe94160130437befc9
802;5c596e2694160156b0931ee6
803;5c5964fb94160130437b96e7
804;5c594d7294160164092e2705
805;5c59648094160130437090b5
806;5c5957fc9416010cf2923e8d
807;5c5964fa94160130437b8865
808;5c595bf79416010cf202d360
809;5c5959129416010cf2b0b79d
810;5c594c3f94160164090bbf17
811;5c5964ec94160130437a7c67
812;5c59650394160130437c6f6e
813;5c59831c9416013cb7aef5c7
814;5c594f069416016409565223
815;5c5959879416010cf2bd3c61
816;5c594d9b941601640932323d
817;5c594d469416016409295892
818;5c594d1c9416016409249b4b
819;5c594d2e941601640926a00b
820;5c596d3094160156b07e3bdf
821;5c594d109416016409237981
822;5c59703294160156b0bcb82b
823;5c5961a294160130432735d9
824;5c594eef9416016409540126
825;5c594eef941601640953ef91
826;5c594ecf9416016409511835
827;5c5959fa9416010cf2ca142a
828;5c59807a941601181d086890
829;5c596bc794160156b04f2b2c
830;5c59653b94160130438369ec
831;5c59867d9416013cb7207415
832;5c5965349416013043829565
833;5c594cee94160164091f8a9d
834;5c594ecd941601640950f9a8
835;5c596193941601304325a5ac
836;5c59582b9416010cf297066c
837;5c5959319416010cf2b41205
838;5c59702d94160156b0bc3c23
839;5c597cce941601181d949cf7
840;5c594d1e941601640924ceef
841;5c596178941601304322b85c
842;5c5985419416013cb7f593f0
843;5c595bf29416010cf2025611
844;5c5959f39416010cf2c91953
845;5c594d36941601640927900d
846;5c594db4941601640934954e
847;5c594d9d9416016409325ca0
848;5c596d1194160156b07be787
849;5c59653b94160130438389f7
850;5c594d42941601640928dbc6
851;5c594d3d941601640928528e
852;5c596233941601304336ac79
853;5c594d30941601640926f64b
854;5c594d0f9416016409236331
855;5c594d3c941601640928321d
856;5c59653c941601304383a29b
857;5c596dba94160156b08a6900
858;5c594d439416016409290989
859;5c597fdb941601181df255d9
860;5c594d3c9416016409282ccb
861;5c594ebd94160164094f6383
862;5c5959199416010cf2b1b505
863;5c597e68941601181dc088f5
864;5c594d479416016409296ece
865;5c596c5c94160156b063ed9a
866;5c594d16941601640923fafe
867;5c594d9b94160164093233b7
868;5c594cf8941601640920d817
869;5c594d3f9416016409288907
870;5c59576e9416010cf283fe47
871;5c59628194160130433e9849
872;5c596e4494160156b094ed23
873;5c594ef9941601640954e8fe
874;5c594d4394160164092901a1
875;5c594ebb94160164094f40b1
876;5c594cef94160164091fb2f8
877;5c596e4794160156b0952997
878;5c5960f294160130431434ab
879;5c5963ba94160130435e16bc
880;5c594e2594160164093f3a4a
881;5c59646594160130436de968
882;5c594e2294160164093ed84d
883;5c594fed9416016409706041
884;5c594e2d941601640940552a
885;5c59627d94160130433e297c
886;5c59646e94160130436ed8cf
887;5c594e2494160164093f171b
888;5c594e1e94160164093e8245
889;5c59646494160130436dc20c
890;5c594e2d94160164094055d7
891;5c5957e29416010cf28f987b
892;5c594e2094160164093ebe7b
893;5c5959c99416010cf2c45aec
894;5c594f2994160164095a5344
895;5c594e2494160164093f277c
896;5c59644d94160130436b6124
897;5c5957fd9416010cf2926574
898;5c597fdb941601181df250ef
899;5c595a799416010cf2d705db
900;5c596d1794160156b07c4460
901;5c594e2494160164093f135a
902;5c5986359416013cb716e408
903;5c59627e94160130433e387d
904;5c5956ad9416010cf2716d44
905;5c5985f49416013cb70dd77a
906;5c5959cb9416010cf2c4a2aa
907;5c594e30941601640940c78a
908;5c594e2c94160164094049a9
909;5c594e65941601640945e6ee
910;5c5963c094160130435eac4d
911;5c59647294160130436f1fc8
912;5c596bff94160156b0584e98
913;5c5963b994160130435df470
914;5c5959d09416010cf2c545e0
915;5c5963a494160130435bcfc8
916;5c5959769416010cf2bb7376
917;5c59651094160130437ddb54
918;5c595c0a9416010cf2050302
919;5c597d5e941601181da05146
920;5c59628d94160130433fb26d
921;5c596bd094160156b05038d4
922;5c595b239416010cf2ea9265
923;5c5963ac94160130435ca0e5
924;5c59868d9416013cb722e5d0
925;5c596b3d94160156b03bc15a
926;5c596b0d94160156b035dfeb
927;5c5960d394160130431078b8
928;5c594f2f94160164095acc74
929;5c596b0494160156b034e1ef
930;5c5960309416013043fd02fe
931;5c597ca0941601181d915a83
932;5c595a839416010cf2d8421f
933;5c5960b694160130430c809f
934;5c5958549416010cf29b2483
935;5c597c13941601181d849379
936;5c59857f9416013cb7fea052
937;5c59585c9416010cf29c5302
938;5c594b569416016409f34a72
939;5c594b579416016409f35d9f
940;5c594b509416016409f24858
941;5c597bd5941601181d7e6f22
942;5c597c4e941601181d8aae59
943;5c595a6b9416010cf2d5c025
944;5c595b0d9416010cf2e7ecfb
945;5c597c01941601181d829536
946;5c594cff9416016409218ebb
947;5c594d00941601640921c282
948;5c59637d941601304357b771
949;5c597f44941601181ddd1be8
950;5c594e54941601640944395e
951;5c594e36941601640941971a
952;5c594beb941601640903b83e
953;5c594c179416016409080fec
954;5c5959259416010cf2b2fc6e
955;5c594f2a94160164095a57b1
956;5c5963709416013043561800
957;5c594e4c94160164094399ef
958;5c594cff94160164092199ab
959;5c594c219416016409090b5f
960;5c594cfc94160164092153bb
961;5c594c29941601640909db13
962;5c594c29941601640909cb8a
963;5c594cfb9416016409212ad3
964;5c59652d941601304381c931
965;5c594dfc94160164093bbaf8
966;5c5958999416010cf2a2cde7
967;5c594c2b94160164090a066c
968;5c5963db9416013043616a19
969;5c594fc394160164096ba37b
970;5c594c1d941601640908a108
971;5c5963e9941601304362aa9d
972;5c594cff941601640921a6aa
973;5c594dcd9416016409370d29
974;5c595fee9416013043f5c1bf
975;5c598081941601181d095b69
976;5c594cff941601640921af7a
977;5c594e43941601640942dbad
978;5c596b6694160156b0428746
979;5c5959a29416010cf2bfece7
980;5c59653e941601304383e5b2
981;5c5963c794160130435f5a28
982;5c59611d9416013043197e87
983;5c5963d994160130436132cd
984;5c594c1d941601640908a9ed
985;5c59599c9416010cf2bf45fb
986;5c5958c09416010cf2a7f531
987;5c594dc594160164093644fa
988;5c594c2b941601640909f764
989;5c594c129416016409079c48
990;5c597df8941601181db04f60
991;5c594c279416016409099d22
992;5c594e349416016409416367
993;5c59636394160130435461cd
994;5c594c249416016409095ea1
995;5c5959189416010cf2b18fde
996;5c594e1094160164093d796f
997;5c5965419416013043843e35
998;5c5963d79416013043610e50
999;5c5963e394160130436230e8
1000;5c595b5f9416010cf2f0f3c1
