1;143
2;67
3;739
4;30
5;181
6;1119
7;44
8;875
9;36
10;18305
11;58
12;11
13;239
14;185
15;42
16;55
17;508
18;12
19;14
20;333
21;166
22;272
23;2533
24;599
25;13
26;182
27;179
28;1740
29;17
30;227
31;31
32;119
33;3740
34;41
35;86
36;129
37;36
38;167
39;8
40;149
41;67
42;7395
43;95
44;8
45;6
46;204
47;5
48;471
49;175
50;2840
51;44
52;9
53;109
54;14
55;14
56;19
57;2211
58;95
59;216
60;15
61;204
62;13
63;2743
64;6452
65;6
66;42
67;48
68;91
69;82
70;9
71;8
72;19
73;5
74;144
75;104
76;5
77;342
78;11
79;2
80;353
81;3
82;6
83;17
84;23
85;74
86;7
87;78
88;94
89;209
90;16
91;45
92;919
93;4197
94;108
95;8
96;50
97;1
98;60
99;40
100;245
101;256
102;8197
103;3467
104;78
105;30
106;1182
107;193
108;86
109;9
110;172
111;2982
112;946
113;47
114;243
115;1154
116;159
117;356
118;4
119;54
120;31091
121;1010
122;5
123;6
124;25
125;12
126;142
127;228
128;21
129;2058
130;768
131;5
132;246
133;373
134;118
135;10403
136;110
137;77
138;401
139;66
140;98585
141;88
142;210
143;11
144;363
145;257
146;37
147;38
148;158
149;12
150;10
151;154
152;176
153;239
154;117
155;109
156;51
157;3347
158;42
159;25
160;244
161;65
162;53
163;34
164;37
165;71
166;7
167;122
168;161
169;11667
170;90
171;486
172;14
173;93
174;65
175;17
176;125
177;37038
178;3
179;426
180;31
181;1405
182;336
183;195
184;52
185;7
186;2
187;21
188;2178
189;66
190;60
191;3
192;62
193;357
194;56
195;81
196;5
197;3
198;205
199;109
200;38
201;126
202;4896
203;3
204;10
205;109
206;70
207;29
208;103
209;59
210;402
211;15
212;604
213;917
214;111
215;20
216;42
217;1232
218;59
219;70
220;42
221;63
222;3
223;12
224;445
225;52
226;9
227;5
228;50
229;79
230;84
231;148
232;192
233;256
234;2
235;10
236;1681
237;137
238;89
239;53
240;13
241;107
242;14
243;112
244;153
245;8
246;3350
247;4
248;4
249;3
250;2
251;145
252;65
253;4
254;1
255;15
256;208
257;6
258;53
259;3
260;59
261;9
262;936
263;1
264;77
265;6
266;3
267;42
268;447
269;69
270;45
271;37
272;16843
273;2
274;3
275;136
276;16
277;75
278;186
279;13
280;7
281;156
282;44
283;218
284;241
285;67
286;175
287;74
288;189
289;102
290;82
291;154
292;531
293;136
294;101
295;63
296;84
297;333
298;72
299;145
300;124
301;162
302;222
303;238
304;73
305;39
306;67
307;83
308;84
309;137
310;147
311;23
312;12
313;89
314;35
315;169
316;420
317;1320
318;114
319;133
320;166
321;1827
322;302
323;207
324;15
325;25
326;100
327;121
328;3
329;1096
330;5
331;101
332;18
333;557
334;170
335;46
336;65
337;68
338;79
339;653
340;583
341;2149
342;175
343;89
344;217
345;214
346;291
347;165
348;797
349;91
350;794
351;587
352;106
353;136
354;112
355;146
356;654
357;620
358;1265
359;90
360;148
361;91
362;1338
363;515
364;178
365;119
366;101
367;80
368;11187
369;102
370;864
371;73
372;7279
373;667
374;175
375;1745
376;117
377;100
378;83
379;511
380;43
381;128
382;144
383;129
384;66
385;141
386;50
387;249
388;26
389;46
390;29
391;113
392;55
393;190
394;173
395;44
396;197
397;81
398;112
399;75
400;75
401;1048
402;43
403;46
404;165
405;65
406;135
407;190
408;329
409;161
410;23
411;15
412;374
413;591
414;84
415;115
416;178
417;140
418;146
419;40
420;170
421;173
422;55
423;83
424;35
425;607
426;241
427;191
428;204
429;184
430;769
431;370
432;228
433;518
434;165
435;94
436;117
437;94
438;434
439;70
440;132
441;3043
442;107
443;101
444;67
445;60
446;94
447;442
448;140
449;45
450;143
451;66
452;193
453;145
454;574
455;454
456;246
457;847
458;47
459;53
460;135
461;251
462;1029
463;2
464;130
465;129
466;413
467;151
468;20
469;496
470;742
471;138
472;42
473;62
474;159
475;49
476;47
477;124
478;89
479;74
480;19
481;71
482;60
483;50
484;576
485;44
486;111
487;170
488;1855
489;279
490;44
491;79
492;141
493;40
494;261
495;370
496;60
497;58
498;367
499;285
500;38
501;153
502;54
503;84
504;196
505;137
506;72
507;74
508;66
509;680
510;747
511;115
512;386
513;143
514;83
515;78
516;103
517;25
518;442
519;57
520;273
521;615
522;83
523;53
524;23
525;363
526;411
527;27
528;53
529;110
530;39
531;49
532;67
533;197
534;144
535;99
536;120
537;335
538;149
539;231
540;21
541;348
542;6
543;153
544;61
545;119
546;225
547;1117
548;171
549;41
550;138
551;62
552;81
553;100
554;45
555;545
556;15
557;86
558;195
559;39
560;125
561;56
562;119
563;64
564;68
565;65
566;258
567;61
568;85
569;21
570;664
571;95
572;39
573;64
574;36
575;32
576;20
577;333
578;256
579;28
580;79
581;83
582;231
583;201
584;378
585;113
586;218
587;134
588;57
589;44
590;133
591;140
592;123
593;58
594;106
595;72
596;332
597;172
598;69
599;47
600;76
601;48
602;114
603;66
604;41
605;69
606;52
607;140
608;110
609;87
610;158
611;93
612;39
613;62
614;131
615;107
616;88
617;362
618;111
619;169
620;89
621;75
622;52
623;646
624;52
625;154
626;263
627;168
628;52
629;57
630;58
631;60
632;91
633;46
634;177
635;95
636;126
637;149
638;73
639;36
640;17
641;82
642;21
643;70
644;63
645;38
646;63
647;77
648;52
649;159
650;101
651;92
652;51
653;483
654;302
655;165
656;256
657;113
658;95
659;63
660;103
661;56
662;53
663;96
664;95
665;18
666;338
667;91
668;57
669;130
670;63
671;153
672;130
673;150
674;141
675;61
676;168
677;88
678;33
679;193
680;40
681;56
682;98
683;32
684;27
685;220
686;126
687;112
688;66
689;802
690;767
691;514
692;214
693;84
694;368
695;656
696;75
697;26
698;212
699;75
700;119
701;65
702;132
703;2727
704;104
705;66
706;147
707;278
708;107
709;357
710;140
711;78
712;226
713;190
714;76
715;152
716;169
717;101
718;29056
719;50
720;157
721;70
722;88
723;174
724;63
725;54
726;67
727;255
728;212
729;70
730;102
731;88
732;41
733;95
734;92
735;66
736;314
737;2
738;134
739;125
740;27
741;80
742;40
743;16
744;73
745;132
746;105
747;38
748;64
749;73
750;27
751;268
752;188
753;60
754;9
755;25
756;61
757;74
758;50
759;111
760;69
761;87
762;142
763;109
764;71
765;48
766;196
767;132
768;57
769;98
770;101
771;41
772;68
773;126
774;91
775;95
776;137
777;17
778;51
779;91
780;49
781;91
782;100
783;155
784;42
785;189
786;144
787;193
788;51
789;144
790;40
791;188
792;82
793;61
794;117
795;23
796;65
797;149
798;50
799;12
800;64
801;78
802;167
803;50
804;115
805;32
806;49
807;57
808;20
809;207
810;116
811;209
812;8
813;89
814;169
815;415697
816;242
817;356
818;227
819;42754
820;67
821;13
822;10605
823;263
824;124
825;43
826;79
827;75
828;121
829;145
830;119
831;154
832;41
833;136
834;116
835;241
836;775
837;502
838;149
839;65
840;36391
841;56
842;164
843;15214
844;30
845;25
846;112
847;19
848;41
849;74
850;60
851;38
852;82
853;80
854;1712
855;1
856;126
857;3
858;3
859;44
860;28
861;2
862;855
863;123
864;86
865;82
866;2143
867;148
868;123
869;86
870;72
871;113
872;87
873;2
874;3
875;50
876;25
877;73
878;161
879;101
880;154
881;64
882;17
883;96
884;146
885;47
886;41
887;15
888;105
889;53
890;520
891;104
892;40
893;33
894;95
895;7
896;18
897;211
898;38
899;42
900;55
901;44
902;9
903;12
904;59
905;53
906;200
907;41
908;16
909;59758
910;256
911;46
912;109
913;134
914;102
915;56
916;26
917;153
918;1591
919;88
920;68
921;97
922;168
923;114
924;48
925;129
926;142
927;49
928;60
929;55
930;68
931;47
932;244
933;178
934;165
935;94
936;110
937;434
938;119
939;168
940;121
941;90
942;74
943;143
944;47
945;84
946;76
947;3084
948;54
949;110
950;329
951;207
952;177
953;130
954;136
955;89
956;268
957;287
958;332
959;83
960;99
961;97
962;55
963;140
964;133
965;372
966;141
967;46
968;31
969;55
970;74
971;45
972;93
973;311
974;64
975;58
976;341
977;144
978;64
979;90
980;169
981;61
982;52
983;21
984;55
985;797
986;101
987;195
988;112
989;147
990;153
991;35
992;98
993;143
994;48
995;60
996;38
997;176
998;18
999;57
1000;338
